Big Data and Economics
…
<img src="pics/trees.gif" width="100%" style="display: block; margin: auto;" />

---
# Read the trees JSON

``` r
# library(jsonlite) ## Already loaded
nyc_trees = 
  fromJSON("https://data.cityofnewyork.us/resource/nwxe-4ae8.json") %>%
  as_tibble()
nyc_trees
```

```
## # A tibble: 1,000 × 45
##    tree_id block_id created_at        tree_dbh stump_diam curb_loc status health
##    <chr>   <chr>    <chr>             <chr>    <chr>      <chr>    <chr>  <chr> 
##  1 180683  348711   2015-08-27T00:00… 3        0          OnCurb   Alive  Fair  
##  2 200540  315986   2015-09-03T00:00… 21       0          OnCurb   Alive  Fair  
##  3 204026  218365   2015-09-05T00:00… 3        0          OnCurb   Alive  Good  
##  4 204337  217969   2015-09-05T00:00… 10       0          OnCurb   Alive  Good  
##  5 189565  223043   2015-08-30T00:00… 21       0          OnCurb   Alive  Good  
##  6 190422  106099   2015-08-30T00:00… 11       0          OnCurb   Alive  Good  
##  7 190426  106099   2015-08-30T00:00… 11       0          OnCurb   Alive  Good  
##  8 208649  103940   2015-09-07T00:00… 9        0          OnCurb   Alive  Good  
##  9 209610  407443   2015-09-08T00:00… 6        0          OnCurb   Alive  Good  
## 10 192755  207508   2015-08-31T00:00… 21       0          OffsetF… Alive  Fair  
## # ℹ 990 more rows
## # ℹ 37 more variables: spc_latin <chr>, spc_common <chr>, steward <chr>,
## #   guards <chr>, sidewalk <chr>, user_type <chr>, problems <chr>,
## #   root_stone <chr>, root_grate <chr>, root_other <chr>, trunk_wire <chr>,
## #   trnk_light <chr>, trnk_other <chr>, brch_light <chr>, brch_shoe <chr>,
## #   brch_other <chr>, address <chr>, zipcode <chr>, zip_city <chr>,
## #   cb_num <chr>, borocode <chr>, boroname <chr>, cncldist <chr>, …
```
…
---
# Turn it into data

``` r
fred =
  fred %>% 
  purrr::pluck("observations") %>% ## Extract the "$observations" list element
  # .$observations %>% ## I could also have used this
  # magrittr::extract("observations") %>% ## Or this
  as_tibble() ## Just for nice formatting
fred
```

```
## # A tibble: 95 × 4
##    realtime_start realtime_end date       value   
##    <chr>          <chr>        <chr>      <chr>   
##  1 2024-09-26     2024-09-26   1929-01-01 1202.659
##  2 2024-09-26     2024-09-26   1930-01-01 1100.67 
##  3 2024-09-26     2024-09-26   1931-01-01 1029.038
##  4 2024-09-26     2024-09-26   1932-01-01 895.802 
##  5 2024-09-26     2024-09-26   1933-01-01 883.847 
##  6 2024-09-26     2024-09-26   1934-01-01 978.188 
##  7 2024-09-26     2024-09-26   1935-01-01 1065.716
##  8 2024-09-26     2024-09-26   1936-01-01 1201.443
##  9 2024-09-26     2024-09-26   1937-01-01 1264.393
## 10 2024-09-26     2024-09-26   1938-01-01 1222.966
## # ℹ 85 more rows
```
…
