…
Now that we've located the API endpoint, let's read the data into R. We'll do so using the `fromJSON()` function from the excellent **jsonlite** package ([link](https://cran.r-project.org/web/packages/jsonlite/index.html)). This will automatically coerce the JSON array into a regular R data frame. However, I'll go that little bit further and convert it into a tibble, since the output is nicer to work with.


```r
# library(jsonlite) ## Already loaded

nyc_trees = 
  fromJSON("https://data.cityofnewyork.us/resource/nwxe-4ae8.json") %>%
  as_tibble()
nyc_trees
```

```
## # A tibble: 1,000 × 45
##    tree_id block_id created_at        tree_dbh stump_diam curb_loc status health
##    <chr>   <chr>    <chr>             <chr>    <chr>      <chr>    <chr>  <chr> 
##  1 180683  348711   2015-08-27T00:00… 3        0          OnCurb   Alive  Fair  
##  2 200540  315986   2015-09-03T00:00… 21       0          OnCurb   Alive  Fair  
##  3 204026  218365   2015-09-05T00:00… 3        0          OnCurb   Alive  Good  
##  4 204337  217969   2015-09-05T00:00… 10       0          OnCurb   Alive  Good  
##  5 189565  223043   2015-08-30T00:00… 21       0          OnCurb   Alive  Good  
##  6 190422  106099   2015-08-30T00:00… 11       0          OnCurb   Alive  Good  
##  7 190426  106099   2015-08-30T00:00… 11       0          OnCurb   Alive  Good  
##  8 208649  103940   2015-09-07T00:00… 9        0          OnCurb   Alive  Good  
##  9 209610  407443   2015-09-08T00:00… 6        0          OnCurb   Alive  Good  
## 10 192755  207508   2015-08-31T00:00… 21       0          OffsetF… Alive  Fair  
## # ℹ 990 more rows
## # ℹ 37 more variables: spc_latin <chr>, spc_common <chr>, steward <chr>,
## #   guards <chr>, sidewalk <chr>, user_type <chr>, problems <chr>,
## #   root_stone <chr>, root_grate <chr>, root_other <chr>, trunk_wire <chr>,
## #   trnk_light <chr>, trnk_other <chr>, brch_light <chr>, brch_shoe <chr>,
## #   brch_other <chr>, address <chr>, zipcode <chr>, zip_city <chr>,
## #   cb_num <chr>, borocode <chr>, boroname <chr>, cncldist <chr>, …
```
…
Luckily, this particular list object isn't too complicated. We can see that what we're really interested in, is the `fred$observations` sub-element. I'll use `purrr::pluck()` to extract this element (there are various other ways to do this) and then coerce it to a tibble.


```r
fred =
  fred %>% 
  purrr::pluck("observations") %>% ## Extract the "$observations" list element
  # .$observations %>% ## I could also have used this
  # magrittr::extract("observations") %>% ## Or this
  as_tibble() ## Just for nice formatting
fred
```

```
## # A tibble: 94 × 4
##    realtime_start realtime_end date       value   
##    <chr>          <chr>        <chr>      <chr>   
##  1 2023-10-10     2023-10-10   1929-01-01 1202.659
##  2 2023-10-10     2023-10-10   1930-01-01 1100.67 
##  3 2023-10-10     2023-10-10   1931-01-01 1029.038
##  4 2023-10-10     2023-10-10   1932-01-01 895.802 
##  5 2023-10-10     2023-10-10   1933-01-01 883.847 
##  6 2023-10-10     2023-10-10   1934-01-01 978.188 
##  7 2023-10-10     2023-10-10   1935-01-01 1065.716
##  8 2023-10-10     2023-10-10   1936-01-01 1201.443
##  9 2023-10-10     2023-10-10   1937-01-01 1264.393
## 10 2023-10-10     2023-10-10   1938-01-01 1222.966
## # ℹ 84 more rows
```
…
rankings = bind_cols(
    rugby$entries$team,
    rugby$entries %>% select(pts:previousPos)
    ) %>% 
  clean_names() %>%
  select(-c(id, alt_id, annotations)) %>% ## These columns aren't adding much of interest
  select(pos, pts, everything()) %>% ## Reorder remaining columns
  as_tibble() ## "Enhanced" tidyverse version of a data frame
rankings
```

```
## # A tibble: 112 × 7
##      pos   pts name         abbreviation country_code previous_pts previous_pos
##    <int> <dbl> <chr>        <chr>        <chr>               <dbl>        <int>
##  1     1  93.8 Ireland      IRE          IRL                  93.8            1
##  2     2  90.6 France       FRA          FRA                  90.6            2
##  3     3  89.7 South Africa RSA          ZAF                  89.7            3
##  4     4  87.7 New Zealand  NZL          NZL                  87.7            4
##  5     5  83.4 Scotland     SCO          SCO                  83.4            5
##  6     6  83.2 England      ENG          ENG                  83.2            6
##  7     7  83.2 Wales        WAL          WAL                  83.2            7
##  8     8  80.5 Argentina    ARG          ARG                  79.3            9
##  9     9  77.5 Australia    AUS          AUS                  77.5           10
## 10    10  77.2 Fiji         FIJ          FJI                  81.2            8
## # ℹ 102 more rows
```
…
Finally, we can now iterate (i.e. loop) over our `dates` vector, by plugging the values sequentially into our `rugby_scrape` function. There are a variety of ways to iterate in R, but I'm going to use an `lapply()` call below.^[Again, don't worry too much about this now. We'll cover iteration and programming in more depth in a later lecture.] We'll then bind everything into a single data frame using `dplyr::bind_rows()` and name the resulting object `rankings_history`.


```r
rankings_history =
  lapply(dates, rugby_scrape) %>% ## Run the iteration
  bind_rows() ## Bind the resulting list of data frames into a single data frame
rankings_history
```

```
## # A tibble: 1,999 × 8
##    date         pos   pts name         abbreviation country_code previous_pts
##    <date>     <int> <dbl> <chr>        <chr>        <chr>               <dbl>
##  1 2003-12-29     1  94.0 England      ENG          ENG                  94.0
##  2 2003-12-29     2  90.1 New Zealand  NZL          NZL                  90.1
##  3 2003-12-29     3  86.6 Australia    AUS          AUS                  86.6
##  4 2003-12-29     4  82.7 France       FRA          FRA                  82.7
##  5 2003-12-29     5  81.2 South Africa RSA          ZAF                  81.2
##  6 2003-12-29     6  80.5 Ireland      IRE          IRL                  80.5
##  7 2003-12-29     7  78.0 Argentina    ARG          ARG                  78.0
##  8 2003-12-29     8  76.9 Wales        WAL          WAL                  76.9
##  9 2003-12-29     9  76.4 Scotland     SCO          SCO                  76.4
## 10 2003-12-29    10  73.5 Samoa        SAM          WSM                  73.5
## # ℹ 1,989 more rows
## # ℹ 1 more variable: previous_pos <int>
```
…
