…
- [**gsheet**](https://cran.r-project.org/web/packages/gsheet/gsheet.pdf): A simple package for reading Google Sheets into R.
- [**googlesheets4**](https://googlesheets4.tidyverse.org/): The latest and greatest version of the **googlesheets** package. There's a reference for it in the [RStudio cheatsheets](https://github.com/rstudio/cheatsheets/blob/main/data-import.pdf).
- [**googledrive**](Google is one such platform. ): A more general package for interacting with Google Drive. (E.g. Downloading files, etc.)

We'll work with **gsheet** because it is relatively straightforward to accomplish the task on the problem set. However, I recommend that you check out the other two packages as well. They are more powerful and will likely be more useful in the long run. 

Let's take the [Ask A Manager Survey for 2023](https://docs.google.com/spreadsheets/d/1ioUjhnz6ywSpEbARI-G3RoPyO0NRBqrJnWf-7C_eirs/edit?resourcekey#gid=1854892322). This sheet is publicly available and you just need to read it like you would any CSV. The function, `gsheet2tbl()` within **gsheet** is a convenient way to do this. It will read in the data. Try it for the [2021](https://docs.google.com/spreadsheets/d/1IPS5dBSGtwYVbjsfbaMCYIWnOuRmJcbequohNxCyGVw/edit?resourcekey#gid=1625408792) and [2022](https://docs.google.com/spreadsheets/d/1Uq5GwatBdujitJkP2X5SDChHSbg68rmuOz9T9eTzu40/edit?resourcekey#gid=1660826355) versions as well.


```r
gsheet2tbl('https://docs.google.com/spreadsheets/d/1IPS5dBSGtwYVbjsfbaMCYIWnOuRmJcbequohNxCyGVw/edit?resourcekey#gid=1625408792') 
```

```
## # A tibble: 27,985 × 18
##    Timestamp          `How old are you?` What industry do you work…¹ `Job title`
##    <chr>              <chr>              <chr>                       <chr>      
##  1 4/27/2021 11:02:10 25-34              Education (Higher Educatio… Research a…
##  2 4/27/2021 11:02:22 25-34              Computing or Tech           Change & I…
##  3 4/27/2021 11:02:38 25-34              Accounting, Banking & Fina… Marketing …
##  4 4/27/2021 11:02:41 25-34              Nonprofits                  Program Ma…
##  5 4/27/2021 11:02:42 25-34              Accounting, Banking & Fina… Accounting…
##  6 4/27/2021 11:02:46 25-34              Education (Higher Educatio… Scholarly …
##  7 4/27/2021 11:02:51 25-34              Publishing                  Publishing…
##  8 4/27/2021 11:03:00 25-34              Education (Primary/Seconda… Librarian  
##  9 4/27/2021 11:03:01 45-54              Computing or Tech           Systems An…
## 10 4/27/2021 11:03:02 35-44              Accounting, Banking & Fina… Senior Acc…
## # ℹ 27,975 more rows
## # ℹ abbreviated name: ¹​`What industry do you work in?`
## # ℹ 14 more variables:
## #   `If your job title needs additional context, please clarify here:` <chr>,
## #   `What is your annual salary? (You'll indicate the currency in a later question. If you are part-time or hourly, please enter an annualized equivalent -- what you would earn if you worked the job 40 hours a week, 52 weeks a year.)` <dbl>,
## #   `How much additional monetary compensation do you get, if any (for example, bonuses or overtime in an average year)? Please only include monetary compensation here, not the value of benefits.` <chr>,
## #   `Please indicate the currency` <chr>, …
```
…
</br>
As you can see, working through this iterative process yields *"div+ .wikitable :nth-child(1)"*. We can now use this unique CSS selector to isolate the pre-IAAF table content from the rest of the HTML document. The core **rvest** function that we'll use to extract the table content is `html_element()`, before piping it on to `html_table()` to parse the HTML table into an R data frame. Notice that I am using the `%>%` pipe-operator from the [magrittr](http://magrittr.tidyverse.org/) package, which can help to express complex operations as elegant pipelines composed of simple, easily understood pieces.


```r
pre_iaaf = 
  m100 %>%
  html_element("div+ .wikitable :nth-child(1)") %>% ## select table element
  html_table()                                      ## convert to data frame

pre_iaaf
```

```
## # A tibble: 21 × 5
##     Time Athlete               Nationality    `Location of races`     Date      
##    <dbl> <chr>                 <chr>          <chr>                   <chr>     
##  1  10.8 Luther Cary           United States  Paris, France           July 4, 1…
##  2  10.8 Cecil Lee             United Kingdom Brussels, Belgium       September…
##  3  10.8 Étienne De Ré         Belgium        Brussels, Belgium       August 4,…
##  4  10.8 L. Atcherley          United Kingdom Frankfurt/Main, Germany April 13,…
##  5  10.8 Harry Beaton          United Kingdom Rotterdam, Netherlands  August 28…
##  6  10.8 Harald Anderson-Arbin Sweden         Helsingborg, Sweden     August 9,…
##  7  10.8 Isaac Westergren      Sweden         Gävle, Sweden           September…
##  8  10.8 Isaac Westergren      Sweden         Gävle, Sweden           September…
##  9  10.8 Frank Jarvis          United States  Paris, France           July 14, …
## 10  10.8 Walter Tewksbury      United States  Paris, France           July 14, …
## # ℹ 11 more rows
```
…
```r
# library(janitor) ## Already loaded
# library(lubridate) ## Already loaded

pre_iaaf =
  pre_iaaf %>%
  clean_names() %>%         ## fix the column names
  mutate(date = mdy(date))  ## convert string to date format

pre_iaaf
```

```
## # A tibble: 21 × 5
##     time athlete               nationality    location_of_races       date      
##    <dbl> <chr>                 <chr>          <chr>                   <date>    
##  1  10.8 Luther Cary           United States  Paris, France           1891-07-04
##  2  10.8 Cecil Lee             United Kingdom Brussels, Belgium       1892-09-25
##  3  10.8 Étienne De Ré         Belgium        Brussels, Belgium       1893-08-04
##  4  10.8 L. Atcherley          United Kingdom Frankfurt/Main, Germany 1895-04-13
##  5  10.8 Harry Beaton          United Kingdom Rotterdam, Netherlands  1895-08-28
##  6  10.8 Harald Anderson-Arbin Sweden         Helsingborg, Sweden     1896-08-09
##  7  10.8 Isaac Westergren      Sweden         Gävle, Sweden           1898-09-11
##  8  10.8 Isaac Westergren      Sweden         Gävle, Sweden           1899-09-10
##  9  10.8 Frank Jarvis          United States  Paris, France           1900-07-14
## 10  10.8 Walter Tewksbury      United States  Paris, France           1900-07-14
## # ℹ 11 more rows
```
…
As we did with the previous table, let's fix the column names and coerce the date string to a format that R understands.


```r
iaaf_76 =
  iaaf_76 %>%
  clean_names() %>%
  mutate(date = mdy(date))

iaaf_76
```

```
## # A tibble: 54 × 8
##     time wind   auto athlete       nationality location_of_race date       ref  
##    <dbl> <chr> <dbl> <chr>         <chr>       <chr>            <date>     <chr>
##  1  10.6 ""     NA   Donald Lippi… United Sta… Stockholm, Swed… 1912-07-06 [2]  
##  2  10.6 ""     NA   Jackson Scho… United Sta… Stockholm, Swed… 1920-09-16 [2]  
##  3  10.4 ""     NA   Charley Padd… United Sta… Redlands, USA    1921-04-23 [2]  
##  4  10.4 "0.0"  NA   Eddie Tolan   United Sta… Stockholm, Swed… 1929-08-08 [2]  
##  5  10.4 ""     NA   Eddie Tolan   United Sta… Copenhagen, Den… 1929-08-25 [2]  
##  6  10.3 ""     NA   Percy Willia… Canada      Toronto, Canada  1930-08-09 [2]  
##  7  10.3 "0.4"  10.4 Eddie Tolan   United Sta… Los Angeles, USA 1932-08-01 [2]  
##  8  10.3 ""     NA   Ralph Metcal… United Sta… Budapest, Hunga… 1933-08-12 [2]  
##  9  10.3 ""     NA   Eulace Peaco… United Sta… Oslo, Norway     1934-08-06 [2]  
## 10  10.3 ""     NA   Chris Berger  Netherlands Amsterdam, Neth… 1934-08-26 [2]  
## # ℹ 44 more rows
```
…
```r
iaaf =
  m100 %>%
  html_element(".wikitable:nth-child(23) :nth-child(1)") %>%
  html_table() %>%
  clean_names() %>%
  mutate(date = mdy(date))

iaaf
```

```
## # A tibble: 24 × 9
##     time wind   auto athlete        nationality   location_of_race    date      
##    <dbl> <chr> <dbl> <chr>          <chr>         <chr>               <date>    
##  1 10.1  1.3      NA Bob Hayes      United States Tokyo, Japan        1964-10-15
##  2 10.0  0.8      NA Jim Hines      United States Sacramento, USA     1968-06-20
##  3 10.0  2.0      NA Charles Greene United States Mexico City, Mexico 1968-10-13
##  4  9.95 0.3      NA Jim Hines      United States Mexico City, Mexico 1968-10-14
##  5  9.93 1.4      NA Calvin Smith   United States Colorado Springs, … 1983-07-03
##  6  9.83 1.0      NA Ben Johnson    Canada        Rome, Italy         1987-08-30
##  7  9.93 1.0      NA Carl Lewis     United States Rome, Italy         1987-08-30
##  8  9.93 1.1      NA Carl Lewis     United States Zürich, Switzerland 1988-08-17
##  9  9.79 1.1      NA Ben Johnson    Canada        Seoul, South Korea  1988-09-24
## 10  9.92 1.1      NA Carl Lewis     United States Seoul, South Korea  1988-09-24
## # ℹ 14 more rows
## # ℹ 2 more variables: notes_note_2 <chr>, duration_of_record <chr>
```
…
```r
wr100 =
  rbind(
    pre_iaaf %>% select(time, athlete, nationality, date) %>% mutate(era = "Pre-IAAF"),
    iaaf_76 %>% select(time, athlete, nationality, date) %>% mutate(era = "Pre-automatic"),
    iaaf %>% select(time, athlete, nationality, date) %>% mutate(era = "Modern")
    )

wr100
```

```
## # A tibble: 99 × 5
##     time athlete               nationality    date       era     
##    <dbl> <chr>                 <chr>          <date>     <chr>   
##  1  10.8 Luther Cary           United States  1891-07-04 Pre-IAAF
##  2  10.8 Cecil Lee             United Kingdom 1892-09-25 Pre-IAAF
##  3  10.8 Étienne De Ré         Belgium        1893-08-04 Pre-IAAF
##  4  10.8 L. Atcherley          United Kingdom 1895-04-13 Pre-IAAF
##  5  10.8 Harry Beaton          United Kingdom 1895-08-28 Pre-IAAF
##  6  10.8 Harald Anderson-Arbin Sweden         1896-08-09 Pre-IAAF
##  7  10.8 Isaac Westergren      Sweden         1898-09-11 Pre-IAAF
##  8  10.8 Isaac Westergren      Sweden         1899-09-10 Pre-IAAF
##  9  10.8 Frank Jarvis          United States  1900-07-14 Pre-IAAF
## 10  10.8 Walter Tewksbury      United States  1900-07-14 Pre-IAAF
## # ℹ 89 more rows
```
…
