Big Data and Economics
…
.footnote[
<sup>1</sup> `summarize` with a "z" works too, but Hadley Wickham is from New Sealand.
]

---
# Learn the verbs

Practice these commands together using the `starwars` data frame that comes pre-packaged with dplyr. **Stop** when you hit the last `summarise` slide (approx. 33). 

```r
starwars
```

```
## # A tibble: 87 × 14
##    name     height  mass hair_color skin_color eye_color birth_year sex   gender
##    <chr>     <int> <dbl> <chr>      <chr>      <chr>          <dbl> <chr> <chr> 
##  1 Luke Sk…    172    77 blond      fair       blue            19   male  mascu…
##  2 C-3PO       167    75 <NA>       gold       yellow         112   none  mascu…
##  3 R2-D2        96    32 <NA>       white, bl… red             33   none  mascu…
##  4 Darth V…    202   136 none       white      yellow          41.9 male  mascu…
##  5 Leia Or…    150    49 brown      light      brown           19   fema… femin…
##  6 Owen La…    178   120 brown, gr… light      blue            52   male  mascu…
##  7 Beru Wh…    165    75 brown      light      blue            47   fema… femin…
##  8 R5-D4        97    32 <NA>       white, red red             NA   none  mascu…
##  9 Biggs D…    183    84 black      light      brown           24   male  mascu…
## 10 Obi-Wan…    182    77 auburn, w… fair       blue-gray       57   male  mascu…
## # ℹ 77 more rows
## # ℹ 5 more variables: homeworld <chr>, species <chr>, films <list>,
## #   vehicles <list>, starships <list>
```
…
To remove missing observations, simply use negation: `filter(!is.na(height))`. Try this yourself.

---
name: arrange

# 2) dplyr::arrange

```r
starwars %>% 
  arrange(birth_year)
```

```
## # A tibble: 87 × 14
##    name     height  mass hair_color skin_color eye_color birth_year sex   gender
##    <chr>     <int> <dbl> <chr>      <chr>      <chr>          <dbl> <chr> <chr> 
##  1 Wicket …     88  20   brown      brown      brown            8   male  mascu…
##  2 IG-88       200 140   none       metal      red             15   none  mascu…
##  3 Luke Sk…    172  77   blond      fair       blue            19   male  mascu…
##  4 Leia Or…    150  49   brown      light      brown           19   fema… femin…
##  5 Wedge A…    170  77   brown      fair       hazel           21   male  mascu…
##  6 Plo Koon    188  80   none       orange     black           22   male  mascu…
##  7 Biggs D…    183  84   black      light      brown           24   male  mascu…
##  8 Han Solo    180  80   brown      fair       brown           29   male  mascu…
##  9 Lando C…    177  79   black      dark       brown           31   male  mascu…
## 10 Boba Fe…    183  78.2 black      fair       brown           31.5 male  mascu…
## # ℹ 77 more rows
## # ℹ 5 more variables: homeworld <chr>, species <chr>, films <list>,
## #   vehicles <list>, starships <list>
```
…
*Note:* Arranging on a character-based column (i.e. strings) will sort alphabetically. Try this yourself by arranging according to the "name" column.

---

# 2) dplyr::arrange *cont.*

We can also arrange items in descending order using `arrange(desc())`.

```r
starwars %>% 
  arrange(desc(birth_year))
```

```
## # A tibble: 87 × 14
##    name     height  mass hair_color skin_color eye_color birth_year sex   gender
##    <chr>     <int> <dbl> <chr>      <chr>      <chr>          <dbl> <chr> <chr> 
##  1 Yoda         66    17 white      green      brown            896 male  mascu…
##  2 Jabba D…    175  1358 <NA>       green-tan… orange           600 herm… mascu…
##  3 Chewbac…    228   112 brown      unknown    blue             200 male  mascu…
##  4 C-3PO       167    75 <NA>       gold       yellow           112 none  mascu…
##  5 Dooku       193    80 white      fair       brown            102 male  mascu…
##  6 Qui-Gon…    193    89 brown      fair       blue              92 male  mascu…
##  7 Ki-Adi-…    198    82 white      pale       yellow            92 male  mascu…
##  8 Finis V…    170    NA blond      fair       blue              91 male  mascu…
##  9 Palpati…    170    75 grey       pale       yellow            82 male  mascu…
## 10 Cliegg …    183    NA brown      fair       blue              82 male  mascu…
## # ℹ 77 more rows
## # ℹ 5 more variables: homeworld <chr>, species <chr>, films <list>,
## #   vehicles <list>, starships <list>
```
…
--

```r
left_join(flights, planes) %>%
  select(year, month, day, dep_time, arr_time, carrier, flight, tailnum, type, model)
```

```
## Joining with `by = join_by(year, tailnum)`
```

```
## # A tibble: 336,776 × 10
##     year month   day dep_time arr_time carrier flight tailnum type  model
##    <int> <int> <int>    <int>    <int> <chr>    <int> <chr>   <chr> <chr>
##  1  2013     1     1      517      830 UA        1545 N14228  <NA>  <NA> 
##  2  2013     1     1      533      850 UA        1714 N24211  <NA>  <NA> 
##  3  2013     1     1      542      923 AA        1141 N619AA  <NA>  <NA> 
##  4  2013     1     1      544     1004 B6         725 N804JB  <NA>  <NA> 
##  5  2013     1     1      554      812 DL         461 N668DN  <NA>  <NA> 
##  6  2013     1     1      554      740 UA        1696 N39463  <NA>  <NA> 
##  7  2013     1     1      555      913 B6         507 N516JB  <NA>  <NA> 
##  8  2013     1     1      557      709 EV        5708 N829AS  <NA>  <NA> 
##  9  2013     1     1      557      838 B6          79 N593JB  <NA>  <NA> 
## 10  2013     1     1      558      753 AA         301 N3ALAA  <NA>  <NA> 
## # ℹ 336,766 more rows
```
…
