Big Data and Economics
…
The package **tidytext** has the function `get_sentiments()` to get sentiment lexicons, which downloads them from the internet
  - **textdata** is where you get afinn
  - What's different about these?

```r
get_sentiments("afinn") %>%
  rename(afinn_value=value) %>%
  full_join(get_sentiments("bing"), by="word") %>%
  full_join(get_sentiments("nrc"), by="word",suffix = c('_bing','_nrc')) %>% 
  filter(!is.na(afinn_value), !is.na(sentiment_bing), !is.na(sentiment_bing))
```

```
## # A tibble: 2,703 × 4
##    word     afinn_value sentiment_bing sentiment_nrc
##    <chr>          <dbl> <chr>          <chr>        
##  1 absentee          -1 negative       negative     
##  2 absentee          -1 negative       sadness      
##  3 abuse             -3 negative       anger        
##  4 abuse             -3 negative       disgust      
##  5 abuse             -3 negative       fear         
##  6 abuse             -3 negative       negative     
##  7 abuse             -3 negative       sadness      
##  8 abused            -3 negative       <NA>         
##  9 abuses            -3 negative       <NA>         
## 10 abusive           -3 negative       <NA>         
## # ℹ 2,693 more rows
```
…
```r
tidy_books <- austen_books() %>%
  group_by(book) %>%
  mutate(
    linenumber = row_number(),
    chapter = cumsum(str_detect(text, 
                                regex("^chapter [\\divxlc]", 
                                      ignore_case = TRUE)))) %>%
  ungroup() %>%
  unnest_tokens(word, text)
tidy_books
```

```
## # A tibble: 725,055 × 4
##    book                linenumber chapter word       
##    <fct>                    <int>   <int> <chr>      
##  1 Sense & Sensibility          1       0 sense      
##  2 Sense & Sensibility          1       0 and        
##  3 Sense & Sensibility          1       0 sensibility
##  4 Sense & Sensibility          3       0 by         
##  5 Sense & Sensibility          3       0 jane       
##  6 Sense & Sensibility          3       0 austen     
##  7 Sense & Sensibility          5       0 1811       
##  8 Sense & Sensibility         10       1 chapter    
##  9 Sense & Sensibility         10       1 1          
## 10 Sense & Sensibility         13       1 the        
## # ℹ 725,045 more rows
```
…
tidy_books %>%
  filter(book == "Emma") %>%
  inner_join(nrc_joy) %>%
  count(word, sort = TRUE)
```

```
## Joining with `by = join_by(word)`
```

```
## # A tibble: 301 × 2
##    word          n
##    <chr>     <int>
##  1 good        359
##  2 friend      166
##  3 hope        143
##  4 happy       125
##  5 love        117
##  6 deal         92
##  7 found        92
##  8 present      89
##  9 kind         82
## 10 happiness    76
## # ℹ 291 more rows
```
…
