Data Science for Economists
…
#### Wide would not work

.scroll-box-12[

```
## # A tibble: 142 × 26
##    country     continent lifeExp_1952 lifeExp_1957 lifeExp_1962 lifeExp_1967
##    <fct>       <fct>            <dbl>        <dbl>        <dbl>        <dbl>
##  1 Afghanistan Asia              28.8         30.3         32.0         34.0
##  2 Albania     Europe            55.2         59.3         64.8         66.2
##  3 Algeria     Africa            43.1         45.7         48.3         51.4
##  4 Angola      Africa            30.0         32.0         34           36.0
##  5 Argentina   Americas          62.5         64.4         65.1         65.6
##  6 Australia   Oceania           69.1         70.3         70.9         71.1
##  7 Austria     Europe            66.8         67.5         69.5         70.1
##  8 Bahrain     Asia              50.9         53.8         56.9         59.9
##  9 Bangladesh  Asia              37.5         39.3         41.2         43.5
## 10 Belgium     Europe            68           69.2         70.2         70.9
## # ℹ 132 more rows
## # ℹ 20 more variables: lifeExp_1972 <dbl>, lifeExp_1977 <dbl>,
## #   lifeExp_1982 <dbl>, lifeExp_1987 <dbl>, lifeExp_1992 <dbl>,
## #   lifeExp_1997 <dbl>, lifeExp_2002 <dbl>, lifeExp_2007 <dbl>,
## #   gdpPercap_1952 <dbl>, gdpPercap_1957 <dbl>, gdpPercap_1962 <dbl>,
## #   gdpPercap_1967 <dbl>, gdpPercap_1972 <dbl>, gdpPercap_1977 <dbl>,
## #   gdpPercap_1982 <dbl>, gdpPercap_1987 <dbl>, gdpPercap_1992 <dbl>, …
```
…
``` r
download.file(
  url='https://raw.githubusercontent.com/big-data-and-economics/big-data-class-materials/main/lectures/03-data-tips/data/lakisha_aer.zip',
  destfile='data/lakisha_aer.zip')
```

- Several R packages will read files right off of the internet

``` r
readr::read_csv(
  file='https://raw.githubusercontent.com/big-data-and-economics/big-data-class-materials/main/lectures/03-data-tips/data/lakisha_aer.csv')
```

```
## # A tibble: 4,873 × 5
##    firstname       gender       race       call       ofjobs
##    <chr>           <chr>        <chr>      <chr>       <dbl>
##  1 firstname row 1 gender row 1 race row 1 call row 1     NA
##  2 firstname row 2 gender row 2 race row 2 call row 2     NA
##  3 firstname row 3 gender row 3 race row 3 call row 3     NA
##  4 Allison         female       cauc       no              2
##  5 Kristen         female       cauc       no              3
##  6 Lakisha         female       afam       no              1
##  7 Latonya         female       afam       no              4
##  8 Carrie          female       cauc       no              3
##  9 Jay             male         cauc       no              2
## 10 Jill            female       cauc       no              2
## # ℹ 4,863 more rows
```
…
---

# Help! This file froze my computer!

Once you know your columns, read those in:

``` r
read_csv('data/lakisha_aer.csv',
  col_select=c('firstname', 'race', 'gender','call','ofjobs'))
```

```
## # A tibble: 4,873 × 5
##    firstname       race       gender       call       ofjobs
##    <chr>           <chr>      <chr>        <chr>       <dbl>
##  1 firstname row 1 race row 1 gender row 1 call row 1     NA
##  2 firstname row 2 race row 2 gender row 2 call row 2     NA
##  3 firstname row 3 race row 3 gender row 3 call row 3     NA
##  4 Allison         cauc       female       no              2
##  5 Kristen         cauc       female       no              3
##  6 Lakisha         afam       female       no              1
##  7 Latonya         afam       female       no              4
##  8 Carrie          cauc       female       no              3
##  9 Jay             cauc       male         no              2
## 10 Jill            cauc       female       no              2
## # ℹ 4,863 more rows
```
…
---
# Can I just read a zip directly in?

- Yes, but it's a little more complicated
- And you can may still want to read in a few rows or columns like before

``` r
read_csv(unz('data/lakisha_aer.zip','lakisha_aer.csv'))  # Unzip the file
```

```
## # A tibble: 4,873 × 5
##    firstname       gender       race       call       ofjobs
##    <chr>           <chr>        <chr>      <chr>       <dbl>
##  1 firstname row 1 gender row 1 race row 1 call row 1     NA
##  2 firstname row 2 gender row 2 race row 2 call row 2     NA
##  3 firstname row 3 gender row 3 race row 3 call row 3     NA
##  4 Allison         female       cauc       no              2
##  5 Kristen         female       cauc       no              3
##  6 Lakisha         female       afam       no              1
##  7 Latonya         female       afam       no              4
##  8 Carrie          female       cauc       no              3
##  9 Jay             male         cauc       no              2
## 10 Jill            female       cauc       no              2
## # ℹ 4,863 more rows
```
…
- [A beginner's guide to Hadoop storage formats](https://blog.matthewrathbone.com/2016/09/01/a-beginners-guide-to-hadoop-storage-formats.html)

- [Hadoop File Formats: It's not just CSV anymore](https://community.hds.com/community/products-and-solutions/pentaho/blog/2017/11/07/hadoop-file-formats-its-not-just-csv-anymore)

---
# What if there is only one file in the zip?

Turns out, you can read the file directly from the zip file with `read_csv()`:

``` r
read_csv(unz('data/lakisha_aer.zip','lakisha_aer.csv'),show_col_type=FALSE)
```

```
## # A tibble: 4,873 × 5
##    firstname       gender       race       call       ofjobs
##    <chr>           <chr>        <chr>      <chr>       <dbl>
##  1 firstname row 1 gender row 1 race row 1 call row 1     NA
##  2 firstname row 2 gender row 2 race row 2 call row 2     NA
##  3 firstname row 3 gender row 3 race row 3 call row 3     NA
##  4 Allison         female       cauc       no              2
##  5 Kristen         female       cauc       no              3
##  6 Lakisha         female       afam       no              1
##  7 Latonya         female       afam       no              4
##  8 Carrie          female       cauc       no              3
##  9 Jay             male         cauc       no              2
## 10 Jill            female       cauc       no              2
## # ℹ 4,863 more rows
```
…
