Big Data and Economics
…
- The job titles are free form text

- How many unique job titles are there?

- Anyone notice any issues? 

```r
managers2023 %>% 
  group_by(jobtitle) %>%
  summarise(n=n()) 
```

```
## # A tibble: 9,654 × 2
##    jobtitle                                                n
##    <chr>                                               <int>
##  1 "\"Team Member, Level 1\" (retail worker)"              1
##  2 "(Junior-ish) Data Manager"                             1
##  3 "(Software) Coordinator"                                1
##  4 "(long-running community science program) Director"     1
##  5 "1st Line Support Engineer"                             1
##  6 "24/5 Live-in nanny"                                    1
##  7 "2nd Grade Teacher"                                     1
##  8 "2nd grade teacher"                                     2
##  9 "3D Artist"                                             1
## 10 "3D lab technologist"                                   1
## # ℹ 9,644 more rows
```
…
- Let's say we want to group similar job titles together

- At the very least, let's make them all lower case

- There's a lot more we could do here! 

```r
managers2023 %>%
  mutate(jobtitle=tolower(jobtitle)) %>%
  group_by(jobtitle) %>%
  summarise(n=n())
```

```
## # A tibble: 8,877 × 2
##    jobtitle                                                n
##    <chr>                                               <int>
##  1 "\"team member, level 1\" (retail worker)"              1
##  2 "(junior-ish) data manager"                             1
##  3 "(long-running community science program) director"     1
##  4 "(software) coordinator"                                1
##  5 "1st line support engineer"                             1
##  6 "24/5 live-in nanny"                                    1
##  7 "2nd grade teacher"                                     3
##  8 "3d artist"                                             1
##  9 "3d lab technologist"                                   1
## 10 "3rd line data engineering specialist"                  1
## # ℹ 8,867 more rows
```
…
```r
tokens <- managers2023 %>% 
  select(jobtitle) %>% 
  filter(!is.na(jobtitle)) %>% 
  mutate(jobtitle=tolower(jobtitle)) %>% 
  unnest_tokens(word,jobtitle) %>%
  count(word,sort=T)
tokens
```

```
## # A tibble: 2,384 × 2
##    word            n
##    <chr>       <int>
##  1 manager      3483
##  2 senior       1924
##  3 director     1856
##  4 engineer     1088
##  5 of            976
##  6 assistant     945
##  7 analyst       916
##  8 specialist    852
##  9 associate     800
## 10 coordinator   662
## # ℹ 2,374 more rows
```
…
```
## Joining with `by = join_by(word)`
```

```r
tokens_no_stops
```

```
## # A tibble: 2,290 × 2
##    word            n
##    <chr>       <int>
##  1 manager      3483
##  2 senior       1924
##  3 director     1856
##  4 engineer     1088
##  5 assistant     945
##  6 analyst       916
##  7 specialist    852
##  8 associate     800
##  9 coordinator   662
## 10 software      602
## # ℹ 2,280 more rows
```
…
Bigrams will count a single word in multiple bigrams:
- "a machine learning algorithm" will count "a machine," "machine learning," and "learning algorithm"

```r
 bigrams <- managers2023 %>% 
  select(jobtitle) %>% 
  filter(!is.na(jobtitle)) %>% 
  mutate(jobtitle=tolower(jobtitle)) %>% 
  unnest_tokens(word,jobtitle,token='ngrams',n=2) %>%
  count(word,sort=T) 
bigrams
```

```
## # A tibble: 9,769 × 2
##    word                   n
##    <chr>              <int>
##  1 <NA>                1691
##  2 director of          651
##  3 software engineer    410
##  4 project manager      341
##  5 program manager      243
##  6 senior software      187
##  7 associate director   173
##  8 human resources      152
##  9 senior manager       150
## 10 operations manager   147
## # ℹ 9,759 more rows
```

---
# Separate out n-grams, remove stop words

.pull-left[

```r
 bigrams_separated <- bigrams %>%
  separate(word,c('word1','word2'),sep=" ") 
bigrams_separated
```

```
## # A tibble: 9,769 × 3
##    word1      word2         n
##    <chr>      <chr>     <int>
##  1 <NA>       <NA>       1691
##  2 director   of          651
##  3 software   engineer    410
##  4 project    manager     341
##  5 program    manager     243
##  6 senior     software    187
##  7 associate  director    173
##  8 human      resources   152
##  9 senior     manager     150
## 10 operations manager     147
## # ℹ 9,759 more rows
```
]
.pull-right[

```r
bigrams_separated %>%
  filter(!word1 %in% stop_words$word) %>%
  filter(!word2 %in% stop_words$word) 
```

```
## # A tibble: 8,292 × 3
##    word1      word2         n
##    <chr>      <chr>     <int>
##  1 <NA>       <NA>       1691
##  2 software   engineer    410
##  3 project    manager     341
##  4 program    manager     243
##  5 senior     software    187
##  6 associate  director    173
##  7 human      resources   152
##  8 senior     manager     150
##  9 operations manager     147
## 10 vice       president   132
## # ℹ 8,282 more rows
```
…
