…
```r
# library(AER) # already loaded
data("ResumeNames")
cleaned_resumes <- ResumeNames %>% 
  mutate(female=gender=='female',
    afam=ethnicity=='afam',
    call=call=='yes') %>%
    select(female, afam,call) %>%
  as_tibble()

cleaned_resumes
```

```
## # A tibble: 4,870 × 3
##    female afam  call 
##    <lgl>  <lgl> <lgl>
##  1 TRUE   FALSE FALSE
##  2 TRUE   FALSE FALSE
##  3 TRUE   TRUE  FALSE
##  4 TRUE   TRUE  FALSE
##  5 TRUE   FALSE FALSE
##  6 FALSE  FALSE FALSE
##  7 TRUE   FALSE FALSE
##  8 TRUE   TRUE  FALSE
##  9 TRUE   TRUE  FALSE
## 10 FALSE  TRUE  FALSE
## # ℹ 4,860 more rows
```
…
```r
set.seed(1000) # replication
random_sample <- function(data) {
  # Get the number of observations
  n <- nrow(data)
  # Sample the data
  data[sample(1:n, n, replace = TRUE), ]
}
random_sample(data=cleaned_resumes)
```

```
## # A tibble: 4,870 × 3
##    female afam  call 
##    <lgl>  <lgl> <lgl>
##  1 TRUE   FALSE FALSE
##  2 FALSE  TRUE  FALSE
##  3 TRUE   TRUE  FALSE
##  4 TRUE   FALSE FALSE
##  5 FALSE  TRUE  FALSE
##  6 FALSE  FALSE FALSE
##  7 TRUE   TRUE  FALSE
##  8 TRUE   TRUE  FALSE
##  9 TRUE   FALSE FALSE
## 10 TRUE   TRUE  FALSE
## # ℹ 4,860 more rows
```
…
```
## Warning: UNRELIABLE VALUE: One of the 'future.apply' iterations
## ('future_lapply-8') unexpectedly generated random numbers without declaring so.
## There is a risk that those random numbers are not statistically sound and the
## overall results might be invalid. To fix this, specify 'future.seed=TRUE'. This
## ensures that proper, parallel-safe random numbers are produced via the
## L'Ecuyer-CMRG method. To disable this check, use 'future.seed = NULL', or set
## option 'future.rng.onMisuse' to "ignore".
```

```
## # A tibble: 1,000 × 1
##    afamTRUE
##       <dbl>
##  1  -0.0365
##  2  -0.0403
##  3  -0.0298
##  4  -0.0190
##  5  -0.0309
##  6  -0.0307
##  7  -0.0267
##  8  -0.0242
##  9  -0.0237
## 10  -0.0463
## # ℹ 990 more rows
```
…
### furrr


```r
tic()
future_map_dfr(1:1e3, 
  function(i) random_sample_lm(cleaned_resumes), 
  .options = furrr_options(seed=123L)) %>%
  bind_rows()
```

```
## # A tibble: 1,000 × 1
##    afamTRUE
##       <dbl>
##  1  -0.0266
##  2  -0.0198
##  3  -0.0420
##  4  -0.0461
##  5  -0.0310
##  6  -0.0372
##  7  -0.0226
##  8  -0.0328
##  9  -0.0177
## 10  -0.0241
## # ℹ 990 more rows
```
…
