Big Data and Economics
…
- Fixed effects remove the variation between units, leaving only the variation within units

- Chetty and Hendren (2018) employ fixed effects to isolate .pink[within]-family variation
   - They do many other things too, but this is the simplest to folow

- Every family has its own unique characteristics that affect children's outcomes
- Fixed effects control for these characteristics by effectively removing the within-family mean from each observation

---
# Simplified dataset of mobility

- Let's look at a hypothetical dataframe for 5 families with 5 children each that move from the same low mobility neighborhood to a high mobility neighborhood

```
## # A tibble: 25 × 4
## # Groups:   family_id [5]
##    family_id child_id age_moved income
##        <int>    <int>     <dbl>  <dbl>
##  1         1        1         5   114.
##  2         2        1        16   122.
##  3         3        1         8   114.
##  4         4        1        20   123.
##  5         5        1        21   123.
##  6         1        2         9   111.
##  7         2        2        11   124.
##  8         3        2        14   111.
##  9         4        2        16   126.
## 10         5        2        18   126.
## # ℹ 15 more rows
```
…
